{"data": [{"id": "f7469f19-8682-4e39-87b9-8f9138aed713", "continent": "Oceania", "region": "Australia and New Zealand", "country": "Australia", "admin1": "Victoria", "admin2": "Loddon Mallee", "city": "Mildura", "suburb": "Mildura", "latitude": -34.185, "longitude": 142.162, "postcode": "3500"}, {"id": "ea369308-561b-4ce1-badf-4f17f74d43e2", "continent": "Oceania", "region": "Australia and New Zealand", "country": "Australia", "admin1": "Victoria", "admin2": "Loddon Mallee", "city": "Swan Hill", "suburb": "Swan Hill", "latitude": -35.339, "longitude": 143.5546, "postcode": "3585"}, {"id": "ea4fa800-c468-47a6-93cb-892834c6c21b", "continent": "Oceania", "region": "Australia and New Zealand", "country": "Australia", "admin1": "Western Australia", "admin2": "Gascoyne", "city": "Carnarvon", "suburb": "Carnarvon", "latitude": -24.8806, "longitude": 113.6576, "postcode": "6701"}, {"id": "0be23be1-bf44-4795-bdc7-ccd8004e16e6", "continent": "Oceania", "region": "Australia and New Zealand", "country": "Australia", "admin1": "Western Australia", "admin2": "Gascoyne", "city": "Coral Bay", "suburb": "Coral Bay", "latitude": -23.144, "longitude": 113.7727, "postcode": "6701"}, {"id": "9e807dcc-ece4-4890-88e7-023621487d5a", "continent": "Oceania", "region": "Australia and New Zealand", "country": "Australia", "admin1": "Western Australia", "admin2": "Gascoyne", "city": "Exmouth", "suburb": "Exmouth", "latitude": -21.9311, "longitude": 114.1266, "postcode": "6707"}, {"id": "ee59fbec-c0a8-4f02-8c28-f09603e7686f", "continent": "Oceania", "region": "Australia and New Zealand", "country": "Australia", "admin1": "Western Australia", "admin2": "Goldfields\u2013Esperance", "city": "Esperance", "suburb": "Esperance", "latitude": -33.8613, "longitude": 121.8896, "postcode": "6450"}, {"id": "2eb9661f-eeed-428c-bf67-55d9155b9277", "continent": "Oceania", "region": "Australia and New Zealand", "country": "Australia", "admin1": "Western Australia", "admin2": "Goldfields\u2013Esperance", "city": "Kalgoorlie", "suburb": "Kalgoorlie", "latitude": -30.7489, "longitude": 121.4656, "postcode": "6430"}, {"id": "d6c57290-5cf8-47eb-8e9f-b3c1d1de0ebc", "continent": "Oceania", "region": "Australia and New Zealand", "country": "Australia", "admin1": "Western Australia", "admin2": "Goldfields\u2013Esperance", "city": "Norseman", "suburb": "Norseman", "latitude": -32.1964, "longitude": 121.7795, "postcode": "6443"}, {"id": "f9ea5a13-1325-46da-9c28-46bf9e4d0324", "continent": "Oceania", "region": "Australia and New Zealand", "country": "Australia", "admin1": "Western Australia", "admin2": "Great Southern", "city": "Albany", "suburb": "Albany", "latitude": -35.0228, "longitude": 117.8814, "postcode": "6330"}, {"id": "b3f6c7a0-d16b-4fcc-8226-b82cf2acf3af", "continent": "Oceania", "region": "Australia and New Zealand", "country": "Australia", "admin1": "Western Australia", "admin2": "Great Southern", "city": "Denmark", "suburb": "Denmark", "latitude": -34.9616, "longitude": 117.3539, "postcode": "6333"}, {"id": "dd97fb1b-73ae-4233-9b1f-fb759646b566", "continent": "Oceania", "region": "Australia and New Zealand", "country": "Australia", "admin1": "Western Australia", "admin2": "Great Southern", "city": "Mount Barker", "suburb": "Mount Barker", "latitude": -34.626, "longitude": 117.6653, "postcode": "6324"}, {"id": "3b273cfa-9644-48e3-9510-daf3118c79a4", "continent": "Oceania", "region": "Australia and New Zealand", "country": "Australia", "admin1": "Western Australia", "admin2": "Kimberley", "city": "Broome", "suburb": "Broome", "latitude": -17.9614, "longitude": 122.2359, "postcode": "6725"}, {"id": "c3207b9c-3159-453b-9755-0de34747bced", "continent": "Oceania", "region": "Australia and New Zealand", "country": "Australia", "admin1": "Western Australia", "admin2": "Kimberley", "city": "Derby", "suburb": "Derby", "latitude": -17.3085, "longitude": 123.6396, "postcode": "6728"}, {"id": "4fb8488b-e3e2-4564-8915-a0324dbdf56f", "continent": "Oceania", "region": "Australia and New Zealand", "country": "Australia", "admin1": "Western Australia", "admin2": "Kimberley", "city": "Kununurra", "suburb": "Kununurra", "latitude": -15.773, "longitude": 128.7384, "postcode": "6743"}, {"id": "22b7dec5-8a13-4354-907b-562c24a3e1b3", "continent": "Oceania", "region": "Australia and New Zealand", "country": "Australia", "admin1": "Western Australia", "admin2": "Mid West", "city": "Dongara", "suburb": "Dongara", "latitude": -29.25, "longitude": 114.9333, "postcode": "6525"}, {"id": "0fc176e4-5a01-4d1a-ab7e-83a6f636f05e", "continent": "Oceania", "region": "Australia and New Zealand", "country": "Australia", "admin1": "Western Australia", "admin2": "Mid West", "city": "Geraldton", "suburb": "Geraldton", "latitude": -28.778, "longitude": 114.6144, "postcode": "6530"}, {"id": "68b03063-682a-4ea3-9f24-944ceb659572", "continent": "Oceania", "region": "Australia and New Zealand", "country": "Australia", "admin1": "Western Australia", "admin2": "Mid West", "city": "Kalbarri", "suburb": "Kalbarri", "latitude": -27.71, "longitude": 114.165, "postcode": "6536"}, {"id": "2dd5592c-321f-41e0-a86e-bb3c7ff84ff7", "continent": "Oceania", "region": "Australia and New Zealand", "country": "Australia", "admin1": "Western Australia", "admin2": "Perth Metropolitan", "city": "Armadale", "suburb": "Armadale", "latitude": -32.15, "longitude": 116.0167, "postcode": "6112"}, {"id": "77a21708-1ac8-4934-acc0-1daa5c5eb7be", "continent": "Oceania", "region": "Australia and New Zealand", "country": "Australia", "admin1": "Western Australia", "admin2": "Perth Metropolitan", "city": "Fremantle", "suburb": "Fremantle", "latitude": -32.0569, "longitude": 115.7439, "postcode": "6160"}, {"id": "14cc6d37-5478-4cf7-8e03-387b3d2d3959", "continent": "Oceania", "region": "Australia and New Zealand", "country": "Australia", "admin1": "Western Australia", "admin2": "Perth Metropolitan", "city": "Gosnells", "suburb": "Gosnells", "latitude": -32.0833, "longitude": 116.0, "postcode": "6110"}, {"id": "46539372-0aa0-4354-8f11-8bb89e8c7bda", "continent": "Oceania", "region": "Australia and New Zealand", "country": "Australia", "admin1": "Western Australia", "admin2": "Perth Metropolitan", "city": "Joondalup", "suburb": "Joondalup", "latitude": -31.7456, "longitude": 115.7662, "postcode": "6027"}, {"id": "c772afb0-d1ec-4bb7-92f8-af31d5b7b76a", "continent": "Oceania", "region": "Australia and New Zealand", "country": "Australia", "admin1": "Western Australia", "admin2": "Perth Metropolitan", "city": "Kwinana", "suburb": "Kwinana", "latitude": -32.2333, "longitude": 115.7833, "postcode": "6167"}, {"id": "3457fe8c-a4eb-4eb4-a0b2-c3e8dd66183e", "continent": "Oceania", "region": "Australia and New Zealand", "country": "Australia", "admin1": "Western Australia", "admin2": "Perth Metropolitan", "city": "Mandurah", "suburb": "Mandurah", "latitude": -32.5267, "longitude": 115.7217, "postcode": "6210"}, {"id": "0223a825-4c59-4c6c-ba13-4432789ad752", "continent": "Oceania", "region": "Australia and New Zealand", "country": "Australia", "admin1": "Western Australia", "admin2": "Perth Metropolitan", "city": "Midland", "suburb": "Midland", "latitude": -31.8944, "longitude": 116.0172, "postcode": "6056"}, {"id": "7a67e0de-6e61-45f8-a732-b0fe8871887d", "continent": "Oceania", "region": "Australia and New Zealand", "country": "Australia", "admin1": "Western Australia", "admin2": "Perth Metropolitan", "city": "Perth", "suburb": "Perth", "latitude": -31.9505, "longitude": 115.8605, "postcode": "6000"}, {"id": "f93c3a56-eb07-4f8b-a160-71c2b1317644", "continent": "Oceania", "region": "Australia and New Zealand", "country": "Australia", "admin1": "Western Australia", "admin2": "Perth Metropolitan", "city": "Rockingham", "suburb": "Rockingham", "latitude": -32.2789, "longitude": 115.7203, "postcode": "6168"}, {"id": "55343be5-ef79-4f6b-8a4e-5bfbaf1d996f", "continent": "Oceania", "region": "Australia and New Zealand", "country": "Australia", "admin1": "Western Australia", "admin2": "Perth Metropolitan", "city": "Stirling", "suburb": "Stirling", "latitude": -31.8167, "longitude": 115.8167, "postcode": "6021"}, {"id": "74fe9d46-6403-46f0-aef5-e86bc4de3ce2", "continent": "Oceania", "region": "Australia and New Zealand", "country": "Australia", "admin1": "Western Australia", "admin2": "Perth Metropolitan", "city": "Wanneroo", "suburb": "Wanneroo", "latitude": -31.75, "longitude": 115.8167, "postcode": "6065"}, {"id": "283dabdb-2dc0-4e31-a5a2-7b0b4dc4417f", "continent": "Oceania", "region": "Australia and New Zealand", "country": "Australia", "admin1": "Western Australia", "admin2": "Pilbara", "city": "Karratha", "suburb": "Karratha", "latitude": -20.7377, "longitude": 116.8463, "postcode": "6714"}, {"id": "ee31a02e-2fd7-4c7b-a97f-cbdeadfe63f7", "continent": "Oceania", "region": "Australia and New Zealand", "country": "Australia", "admin1": "Western Australia", "admin2": "Pilbara", "city": "Newman", "suburb": "Newman", "latitude": -23.3565, "longitude": 119.7311, "postcode": "6753"}, {"id": "9bdcedb9-b74b-43da-ba7f-28397299838e", "continent": "Oceania", "region": "Australia and New Zealand", "country": "Australia", "admin1": "Western Australia", "admin2": "Pilbara", "city": "Port Hedland", "suburb": "Port Hedland", "latitude": -20.3104, "longitude": 118.606, "postcode": "6721"}, {"id": "eb4cde7a-9ed8-46c7-a888-378727a1d4a9", "continent": "Oceania", "region": "Australia and New Zealand", "country": "Australia", "admin1": "Western Australia", "admin2": "South West", "city": "Bunbury", "suburb": "Bunbury", "latitude": -33.3271, "longitude": 115.6414, "postcode": "6230"}, {"id": "2517f538-5883-4987-88bf-b1b7ccb0bdb4", "continent": "Oceania", "region": "Australia and New Zealand", "country": "Australia", "admin1": "Western Australia", "admin2": "South West", "city": "Busselton", "suburb": "Busselton", "latitude": -33.6525, "longitude": 115.3455, "postcode": "6280"}, {"id": "28b74b5f-4164-4d62-9c07-a6ee1e7ae6c0", "continent": "Oceania", "region": "Australia and New Zealand", "country": "Australia", "admin1": "Western Australia", "admin2": "South West", "city": "Margaret River", "suburb": "Margaret River", "latitude": -33.9498, "longitude": 115.073, "postcode": "6285"}, {"id": "7e621c04-3907-47ea-bb88-d527b181d7e0", "continent": "Oceania", "region": "Australia and New Zealand", "country": "Australia", "admin1": "Western Australia", "admin2": "Wheatbelt", "city": "Merredin", "suburb": "Merredin", "latitude": -31.4824, "longitude": 118.277, "postcode": "6415"}, {"id": "58b80a4d-4802-4c54-868b-ed3f47e5a799", "continent": "Oceania", "region": "Australia and New Zealand", "country": "Australia", "admin1": "Western Australia", "admin2": "Wheatbelt", "city": "Narrogin", "suburb": "Narrogin", "latitude": -32.9333, "longitude": 117.1833, "postcode": "6312"}, {"id": "870de99e-ae40-4568-ba1a-070f24e8eedf", "continent": "Oceania", "region": "Australia and New Zealand", "country": "Australia", "admin1": "Western Australia", "admin2": "Wheatbelt", "city": "Northam", "suburb": "Northam", "latitude": -31.6496, "longitude": 116.6706, "postcode": "6401"}, {"id": "6d18e0fd-3b11-41d8-bdc3-63f3948a3b85", "continent": "South America", "region": "South America", "country": "Argentina", "admin1": "", "admin2": "", "city": "", "suburb": "", "latitude": -38.4161, "longitude": -63.6167, "postcode": ""}, {"id": "fc34e117-343d-4d03-ad80-51e7f3f32019", "continent": "South America", "region": "South America", "country": "Brazil", "admin1": "", "admin2": "", "city": "", "suburb": "", "latitude": -14.235, "longitude": -51.9253, "postcode": ""}], "next_page": null, "records": 39, "total": 439, "page": 4, "total_pages": 5}