{"data": [{"id": "c61ad10f-3faf-48e2-8cdc-edd6fd6742d1", "continent": "Africa", "region": "Southern Africa", "country": "South Africa", "admin1": "Limpopo", "admin2": "Waterberg", "city": "Modimolle", "suburb": "Modimolle", "latitude": -24.7007, "longitude": 28.4084, "postcode": "0510"}, {"id": "688b8b81-a2ef-4086-98bb-0f6f477be398", "continent": "Africa", "region": "Southern Africa", "country": "South Africa", "admin1": "Limpopo", "admin2": "Waterberg", "city": "Thabazimbi", "suburb": "Thabazimbi", "latitude": -24.5916, "longitude": 27.4095, "postcode": "0380"}, {"id": "660cb91e-b059-4143-8fa2-d4b05e328641", "continent": "Africa", "region": "Southern Africa", "country": "South Africa", "admin1": "Mpumalanga", "admin2": "Ehlanzeni", "city": "Hazyview", "suburb": "Hazyview", "latitude": -25.0472, "longitude": 31.1181, "postcode": "1242"}, {"id": "da47a5ae-ff9a-4e0d-ad51-9a413736e517", "continent": "Africa", "region": "Southern Africa", "country": "South Africa", "admin1": "Mpumalanga", "admin2": "Ehlanzeni", "city": "Mbombela", "suburb": "Mbombela", "latitude": -25.4658, "longitude": 30.9852, "postcode": "1200"}, {"id": "ec1c1d5c-bb5a-429a-88c3-b0007274fea3", "continent": "Africa", "region": "Southern Africa", "country": "South Africa", "admin1": "Mpumalanga", "admin2": "Ehlanzeni", "city": "White River", "suburb": "White River", "latitude": -25.3206, "longitude": 31.0158, "postcode": "1240"}, {"id": "ae14faa1-037b-45fa-804f-6149fa56c154", "continent": "Africa", "region": "Southern Africa", "country": "South Africa", "admin1": "Mpumalanga", "admin2": "Gert Sibande", "city": "Ermelo", "suburb": "Ermelo", "latitude": -26.5322, "longitude": 29.9831, "postcode": "2350"}, {"id": "9181abe4-9e06-4d06-b5d8-45cee73ccb1e", "continent": "Africa", "region": "Southern Africa", "country": "South Africa", "admin1": "Mpumalanga", "admin2": "Gert Sibande", "city": "Secunda", "suburb": "Secunda", "latitude": -26.5092, "longitude": 29.1748, "postcode": "2302"}, {"id": "0bcb11f0-6fdb-434c-a46c-9025dbd089c7", "continent": "Africa", "region": "Southern Africa", "country": "South Africa", "admin1": "Mpumalanga", "admin2": "Gert Sibande", "city": "Standerton", "suburb": "Standerton", "latitude": -26.952, "longitude": 29.24, "postcode": "2430"}, {"id": "3c606de5-f980-4a0e-ab78-ac8203239656", "continent": "Africa", "region": "Southern Africa", "country": "South Africa", "admin1": "Mpumalanga", "admin2": "Nkangala", "city": "Delmas", "suburb": "Delmas", "latitude": -26.1497, "longitude": 28.6845, "postcode": "2210"}, {"id": "b8b07809-b0d5-4c4c-8eed-144b10dd6235", "continent": "Africa", "region": "Southern Africa", "country": "South Africa", "admin1": "Mpumalanga", "admin2": "Nkangala", "city": "Emalahleni", "suburb": "Emalahleni", "latitude": -25.8789, "longitude": 29.2314, "postcode": "1035"}, {"id": "6ecd3984-5f78-447a-97be-62ef187cb99d", "continent": "Africa", "region": "Southern Africa", "country": "South Africa", "admin1": "Mpumalanga", "admin2": "Nkangala", "city": "Middelburg", "suburb": "Middelburg", "latitude": -25.7652, "longitude": 29.4641, "postcode": "1050"}, {"id": "469f4521-ab51-4638-a844-ea029742a1fc", "continent": "Africa", "region": "Southern Africa", "country": "South Africa", "admin1": "North West", "admin2": "Bojanala", "city": "Brits", "suburb": "Brits", "latitude": -25.6356, "longitude": 27.7809, "postcode": "0250"}, {"id": "fa7f8839-71b5-438f-b87d-65ee7b6e0eb5", "continent": "Africa", "region": "Southern Africa", "country": "South Africa", "admin1": "North West", "admin2": "Bojanala", "city": "Mogwase", "suburb": "Mogwase", "latitude": -25.3042, "longitude": 27.1522, "postcode": "0314"}, {"id": "e611d7b2-172a-423f-b9c1-b2d67eed73ed", "continent": "Africa", "region": "Southern Africa", "country": "South Africa", "admin1": "North West", "admin2": "Bojanala", "city": "Rustenburg", "suburb": "Rustenburg", "latitude": -25.6544, "longitude": 27.2404, "postcode": "0300"}, {"id": "77b72050-df45-41a4-91cf-fe0f89c4fb58", "continent": "Africa", "region": "Southern Africa", "country": "South Africa", "admin1": "North West", "admin2": "Dr Kenneth Kaunda", "city": "Klerksdorp", "suburb": "Klerksdorp", "latitude": -26.8518, "longitude": 26.6679, "postcode": "2570"}, {"id": "e511e9f9-1df4-456b-a9e1-f6b619a6512f", "continent": "Africa", "region": "Southern Africa", "country": "South Africa", "admin1": "North West", "admin2": "Dr Kenneth Kaunda", "city": "Potchefstroom", "suburb": "Potchefstroom", "latitude": -26.7145, "longitude": 27.097, "postcode": "2520"}, {"id": "01ef8340-4331-43a0-8b21-5518415ed87d", "continent": "Africa", "region": "Southern Africa", "country": "South Africa", "admin1": "North West", "admin2": "Dr Kenneth Kaunda", "city": "Wolmaransstad", "suburb": "Wolmaransstad", "latitude": -27.1975, "longitude": 25.98, "postcode": "2630"}, {"id": "2316a438-525d-401e-80c1-ad844dae5a29", "continent": "Africa", "region": "Southern Africa", "country": "South Africa", "admin1": "North West", "admin2": "Dr Ruth Segomotsi Mompati", "city": "Schweizer-Reneke", "suburb": "Schweizer-Reneke", "latitude": -27.1886, "longitude": 25.3272, "postcode": "2780"}, {"id": "2a8f3421-a42f-431b-b166-84f9834abd7c", "continent": "Africa", "region": "Southern Africa", "country": "South Africa", "admin1": "North West", "admin2": "Dr Ruth Segomotsi Mompati", "city": "Taung", "suburb": "Taung", "latitude": -27.5461, "longitude": 24.7717, "postcode": "8580"}, {"id": "d7074f15-8087-499d-a6b8-2ae073f64199", "continent": "Africa", "region": "Southern Africa", "country": "South Africa", "admin1": "North West", "admin2": "Dr Ruth Segomotsi Mompati", "city": "Vryburg", "suburb": "Vryburg", "latitude": -26.9566, "longitude": 24.7284, "postcode": "8600"}, {"id": "bf30d3e1-2d10-4049-a18e-d1c132e11d9f", "continent": "Africa", "region": "Southern Africa", "country": "South Africa", "admin1": "North West", "admin2": "Ngaka Modiri Molema", "city": "Lichtenburg", "suburb": "Lichtenburg", "latitude": -26.1513, "longitude": 26.1592, "postcode": "2740"}, {"id": "6300493e-beb8-4e0f-b14b-bfa60bb18b14", "continent": "Africa", "region": "Southern Africa", "country": "South Africa", "admin1": "North West", "admin2": "Ngaka Modiri Molema", "city": "Mahikeng", "suburb": "Mahikeng", "latitude": -25.8656, "longitude": 25.6442, "postcode": "2745"}, {"id": "85f68bd1-2e06-40e8-8a24-bef9fbe9abad", "continent": "Africa", "region": "Southern Africa", "country": "South Africa", "admin1": "North West", "admin2": "Ngaka Modiri Molema", "city": "Zeerust", "suburb": "Zeerust", "latitude": -25.5378, "longitude": 26.0726, "postcode": "2865"}, {"id": "905205f3-71f1-473d-9825-415e160dd45a", "continent": "Africa", "region": "Southern Africa", "country": "South Africa", "admin1": "Northern Cape", "admin2": "Frances Baard", "city": "Barkly West", "suburb": "Barkly West", "latitude": -28.5385, "longitude": 24.5211, "postcode": "8375"}, {"id": "21b855e9-1657-4d2c-ae40-d96937376c7a", "continent": "Africa", "region": "Southern Africa", "country": "South Africa", "admin1": "Northern Cape", "admin2": "Frances Baard", "city": "Kimberley", "suburb": "Kimberley", "latitude": -28.7323, "longitude": 24.7623, "postcode": "8300"}, {"id": "272574df-3208-41b3-9003-4b5663f5a7f5", "continent": "Africa", "region": "Southern Africa", "country": "South Africa", "admin1": "Northern Cape", "admin2": "Frances Baard", "city": "Warrenton", "suburb": "Warrenton", "latitude": -28.1106, "longitude": 24.8522, "postcode": "8530"}, {"id": "54c4c995-4234-4d7e-b86b-27c8b9bf63d8", "continent": "Africa", "region": "Southern Africa", "country": "South Africa", "admin1": "Northern Cape", "admin2": "John Taolo Gaetsewe", "city": "Kathu", "suburb": "Kathu", "latitude": -27.6955, "longitude": 23.05, "postcode": "8446"}, {"id": "af717531-44d8-4350-b7b8-29d7e38db247", "continent": "Africa", "region": "Southern Africa", "country": "South Africa", "admin1": "Northern Cape", "admin2": "John Taolo Gaetsewe", "city": "Kuruman", "suburb": "Kuruman", "latitude": -27.45, "longitude": 23.4333, "postcode": "8460"}, {"id": "56c2ab52-82a2-4e1a-88e7-66ed42070518", "continent": "Africa", "region": "Southern Africa", "country": "South Africa", "admin1": "Northern Cape", "admin2": "John Taolo Gaetsewe", "city": "Mothibistad", "suburb": "Mothibistad", "latitude": -27.4166, "longitude": 23.5, "postcode": "8474"}, {"id": "8c102187-6a38-4e55-8c5d-9cbdee930e47", "continent": "Africa", "region": "Southern Africa", "country": "South Africa", "admin1": "Northern Cape", "admin2": "Namakwa", "city": "Calvinia", "suburb": "Calvinia", "latitude": -31.47, "longitude": 19.7756, "postcode": "8190"}, {"id": "f3d22d82-6d69-49bc-b589-3196c8afc063", "continent": "Africa", "region": "Southern Africa", "country": "South Africa", "admin1": "Northern Cape", "admin2": "Namakwa", "city": "Pofadder", "suburb": "Pofadder", "latitude": -29.1225, "longitude": 19.3889, "postcode": "8890"}, {"id": "a9b1891e-02cb-4c4d-a56d-63d3cc61248c", "continent": "Africa", "region": "Southern Africa", "country": "South Africa", "admin1": "Northern Cape", "admin2": "Namakwa", "city": "Springbok", "suburb": "Springbok", "latitude": -29.6664, "longitude": 17.8843, "postcode": "8240"}, {"id": "fa8c3e8b-35b0-48de-af87-9e74914ac81b", "continent": "Africa", "region": "Southern Africa", "country": "South Africa", "admin1": "Northern Cape", "admin2": "Pixley ka Seme", "city": "Carnarvon", "suburb": "Carnarvon", "latitude": -30.9667, "longitude": 22.1333, "postcode": "8925"}, {"id": "865a1f8b-1092-4810-a50f-43fc62f3342d", "continent": "Africa", "region": "Southern Africa", "country": "South Africa", "admin1": "Northern Cape", "admin2": "Pixley ka Seme", "city": "Colesberg", "suburb": "Colesberg", "latitude": -30.7197, "longitude": 25.0972, "postcode": "9795"}, {"id": "f46a9f61-0811-4a08-9224-52da1600faaf", "continent": "Africa", "region": "Southern Africa", "country": "South Africa", "admin1": "Northern Cape", "admin2": "Pixley ka Seme", "city": "De Aar", "suburb": "De Aar", "latitude": -30.65, "longitude": 24, "postcode": "7000"}, {"id": "9f43db4b-2f04-4f4b-82cf-93bc72e521e5", "continent": "Africa", "region": "Southern Africa", "country": "South Africa", "admin1": "Northern Cape", "admin2": "ZF Mgcawu", "city": "Kakamas", "suburb": "Kakamas", "latitude": -28.7695, "longitude": 20.6328, "postcode": "8870"}, {"id": "ba9ebf8e-63bc-4b0a-882d-2064d568b7ef", "continent": "Africa", "region": "Southern Africa", "country": "South Africa", "admin1": "Northern Cape", "admin2": "ZF Mgcawu", "city": "Keimoes", "suburb": "Keimoes", "latitude": -28.7167, "longitude": 20.9667, "postcode": "8860"}, {"id": "258d0012-3e45-46af-8c9b-f45b345c84b0", "continent": "Africa", "region": "Southern Africa", "country": "South Africa", "admin1": "Northern Cape", "admin2": "ZF Mgcawu", "city": "Upington", "suburb": "Upington", "latitude": -28.4478, "longitude": 21.2561, "postcode": "8800"}, {"id": "6cfd12c9-0f53-4161-8f1c-c09b26686679", "continent": "Africa", "region": "Southern Africa", "country": "South Africa", "admin1": "Western Cape", "admin2": "Cape Winelands", "city": "Paarl", "suburb": "Paarl", "latitude": -33.7274, "longitude": 18.9562, "postcode": "7646"}, {"id": "adc3bbc7-56c3-4f4b-9f0e-d97084ef4603", "continent": "Africa", "region": "Southern Africa", "country": "South Africa", "admin1": "Western Cape", "admin2": "Cape Winelands", "city": "Stellenbosch", "suburb": "Stellenbosch", "latitude": -33.9321, "longitude": 18.8602, "postcode": "7600"}, {"id": "dbd8a626-adb7-44d5-965a-3d6c7ef35364", "continent": "Africa", "region": "Southern Africa", "country": "South Africa", "admin1": "Western Cape", "admin2": "Cape Winelands", "city": "Worcester", "suburb": "Worcester", "latitude": -33.6474, "longitude": 19.4482, "postcode": "6850"}, {"id": "933ce664-7cdc-472b-8a39-fed8d9ea6cec", "continent": "Africa", "region": "Southern Africa", "country": "South Africa", "admin1": "Western Cape", "admin2": "Central Karoo", "city": "Beaufort West", "suburb": "Beaufort West", "latitude": -32.3565, "longitude": 22.5864, "postcode": "6970"}, {"id": "6ad67910-82a0-40c1-b640-c1f813e5fe05", "continent": "Africa", "region": "Southern Africa", "country": "South Africa", "admin1": "Western Cape", "admin2": "Central Karoo", "city": "Laingsburg", "suburb": "Laingsburg", "latitude": -33.1967, "longitude": 20.8583, "postcode": "6900"}, {"id": "945a90f8-6288-4cb7-9a97-f4325e6f3a62", "continent": "Africa", "region": "Southern Africa", "country": "South Africa", "admin1": "Western Cape", "admin2": "Central Karoo", "city": "Prince Albert", "suburb": "Prince Albert", "latitude": -33.2226, "longitude": 22.0303, "postcode": "6930"}, {"id": "190e2abf-e189-46cf-a215-fa8d5819b206", "continent": "Africa", "region": "Southern Africa", "country": "South Africa", "admin1": "Western Cape", "admin2": "City of Cape Town", "city": "Bellville", "suburb": "Bellville", "latitude": -33.9044, "longitude": 18.6294, "postcode": "7530"}, {"id": "3daf1d23-a847-45ec-8fbd-95703dbdc7e8", "continent": "Africa", "region": "Southern Africa", "country": "South Africa", "admin1": "Western Cape", "admin2": "City of Cape Town", "city": "Cape Town", "suburb": "Cape Town", "latitude": -33.9249, "longitude": 18.4241, "postcode": "8001"}, {"id": "906dd56d-21d2-40cd-b8dc-d764a9932bba", "continent": "Africa", "region": "Southern Africa", "country": "South Africa", "admin1": "Western Cape", "admin2": "City of Cape Town", "city": "Simon's Town", "suburb": "Simon's Town", "latitude": -34.1933, "longitude": 18.4297, "postcode": "7975"}, {"id": "e813334c-47e0-4143-bb02-1e4dbc57a6a7", "continent": "Africa", "region": "Southern Africa", "country": "South Africa", "admin1": "Western Cape", "admin2": "Garden Route", "city": "George", "suburb": "George", "latitude": -33.9581, "longitude": 22.4596, "postcode": "6530"}, {"id": "ec6d23b7-407d-41a3-85dc-71243b85d635", "continent": "Africa", "region": "Southern Africa", "country": "South Africa", "admin1": "Western Cape", "admin2": "Garden Route", "city": "Knysna", "suburb": "Knysna", "latitude": -34.0358, "longitude": 23.0471, "postcode": "6570"}, {"id": "3ace4de9-353d-4671-b562-62bf4f104047", "continent": "Africa", "region": "Southern Africa", "country": "South Africa", "admin1": "Western Cape", "admin2": "Garden Route", "city": "Mossel Bay", "suburb": "Mossel Bay", "latitude": -34.1833, "longitude": 22.1333, "postcode": "6500"}, {"id": "37b6ce87-db37-4e53-86ea-b64d7331c8a0", "continent": "Africa", "region": "Southern Africa", "country": "South Africa", "admin1": "Western Cape", "admin2": "Overberg", "city": "Caledon", "suburb": "Caledon", "latitude": -34.2306, "longitude": 19.4256, "postcode": "7230"}, {"id": "0d74cf9f-f0ed-4f29-9e80-64f79a6fe995", "continent": "Africa", "region": "Southern Africa", "country": "South Africa", "admin1": "Western Cape", "admin2": "Overberg", "city": "Hermanus", "suburb": "Hermanus", "latitude": -34.4187, "longitude": 19.2345, "postcode": "7200"}, {"id": "98a97236-8599-4f14-b58d-69e4d299dde0", "continent": "Africa", "region": "Southern Africa", "country": "South Africa", "admin1": "Western Cape", "admin2": "Overberg", "city": "Swellendam", "suburb": "Swellendam", "latitude": -34.0233, "longitude": 20.4372, "postcode": "6740"}, {"id": "e6ecc456-a6a8-4596-9687-11649de7c165", "continent": "Africa", "region": "Southern Africa", "country": "South Africa", "admin1": "Western Cape", "admin2": "West Coast", "city": "Malmesbury", "suburb": "Malmesbury", "latitude": -33.4653, "longitude": 18.7214, "postcode": "7299"}, {"id": "35b82282-ff2a-49ed-bdc0-ccd08ce1515d", "continent": "Africa", "region": "Southern Africa", "country": "South Africa", "admin1": "Western Cape", "admin2": "West Coast", "city": "Saldanha", "suburb": "Saldanha", "latitude": -33.0117, "longitude": 17.9442, "postcode": "7395"}, {"id": "447cb812-3ecf-45da-8ace-23e32eec0753", "continent": "Africa", "region": "Southern Africa", "country": "South Africa", "admin1": "Western Cape", "admin2": "West Coast", "city": "Vredenburg", "suburb": "Vredenburg", "latitude": -32.9078, "longitude": 17.9889, "postcode": "7380"}, {"id": "5f9783f4-3409-4ab6-a7e6-e9308e4d7aee", "continent": "Africa", "region": "Western Africa", "country": "Nigeria", "admin1": "", "admin2": "", "city": "", "suburb": "", "latitude": 9.082, "longitude": 8.6753, "postcode": ""}, {"id": "88699039-4dd6-408d-b698-f3e5759dbb0e", "continent": "Asia", "region": "Eastern Asia", "country": "China", "admin1": "", "admin2": "", "city": "", "suburb": "", "latitude": 35.8617, "longitude": 104.1954, "postcode": ""}, {"id": "577df851-69a0-42a8-b041-aaf6240ca964", "continent": "Asia", "region": "Southern Asia", "country": "India", "admin1": "", "admin2": "", "city": "", "suburb": "", "latitude": 20.5937, "longitude": 78.9629, "postcode": ""}, {"id": "995aeda9-7dfa-4b76-8708-26baca4d158d", "continent": "Europe", "region": "Western Europe", "country": "Germany", "admin1": "", "admin2": "", "city": "", "suburb": "", "latitude": 51.1657, "longitude": 10.4515, "postcode": ""}, {"id": "0f054ac0-b577-4d50-86bc-15b13df6665c", "continent": "North America", "region": "Northern America", "country": "Canada", "admin1": "", "admin2": "", "city": "", "suburb": "", "latitude": 56.1304, "longitude": -106.347, "postcode": ""}, {"id": "6320396e-f0b7-47bb-ae9a-6a8e6e57d13d", "continent": "North America", "region": "Northern America", "country": "United States", "admin1": "", "admin2": "", "city": "", "suburb": "", "latitude": 37.0902, "longitude": -95.7129, "postcode": ""}, {"id": "7cffe93e-a8e7-4c33-bd1a-10be967b8421", "continent": "Oceania", "region": "Australia and New Zealand", "country": "Australia", "admin1": "", "admin2": "", "city": "", "suburb": "", "latitude": -25.2744, "longitude": 133.7751, "postcode": ""}, {"id": "1af85f12-80b1-464a-91da-9c203589c770", "continent": "Oceania", "region": "Australia and New Zealand", "country": "Australia", "admin1": "Australian Capital Territory", "admin2": "Belconnen", "city": "Belconnen", "suburb": "Belconnen", "latitude": -35.2362, "longitude": 149.0675, "postcode": "2617"}, {"id": "10e5f9ae-fd1c-4cd5-b6dd-fd44c9100c0e", "continent": "Oceania", "region": "Australia and New Zealand", "country": "Australia", "admin1": "Australian Capital Territory", "admin2": "Belconnen", "city": "Florey", "suburb": "Florey", "latitude": -35.225, "longitude": 149.05, "postcode": "2615"}, {"id": "d5bc4fbb-c060-4c3e-974e-de5c052ea8db", "continent": "Oceania", "region": "Australia and New Zealand", "country": "Australia", "admin1": "Australian Capital Territory", "admin2": "Belconnen", "city": "Kaleen", "suburb": "Kaleen", "latitude": -35.2192, "longitude": 149.1033, "postcode": "2617"}, {"id": "6b511db6-6620-4ce2-a8e4-37c8072e3878", "continent": "Oceania", "region": "Australia and New Zealand", "country": "Australia", "admin1": "Australian Capital Territory", "admin2": "Canberra Central", "city": "Braddon", "suburb": "Braddon", "latitude": -35.2718, "longitude": 149.1331, "postcode": "2612"}, {"id": "7e86dc61-d2b5-425c-99d3-e7c0254a03ce", "continent": "Oceania", "region": "Australia and New Zealand", "country": "Australia", "admin1": "Australian Capital Territory", "admin2": "Canberra Central", "city": "Civic (City Centre)", "suburb": "Civic (City Centre)", "latitude": -35.281, "longitude": 149.1287, "postcode": "2601"}, {"id": "7916c8ef-de94-4ecf-a4bb-f4b1d799463a", "continent": "Oceania", "region": "Australia and New Zealand", "country": "Australia", "admin1": "Australian Capital Territory", "admin2": "Canberra Central", "city": "Reid", "suburb": "Reid", "latitude": -35.2806, "longitude": 149.1425, "postcode": "2612"}, {"id": "c27116c1-b3a4-48a5-9427-65229a38fa23", "continent": "Oceania", "region": "Australia and New Zealand", "country": "Australia", "admin1": "Australian Capital Territory", "admin2": "Gungahlin", "city": "Amaroo", "suburb": "Amaroo", "latitude": -35.1811, "longitude": 149.1181, "postcode": "2914"}, {"id": "59b28829-2cbc-4237-978a-3113e0f24ec3", "continent": "Oceania", "region": "Australia and New Zealand", "country": "Australia", "admin1": "Australian Capital Territory", "admin2": "Gungahlin", "city": "Franklin", "suburb": "Franklin", "latitude": -35.205, "longitude": 149.13, "postcode": "2913"}, {"id": "a88d6d4c-7a95-4ce8-a95a-8a936e96e477", "continent": "Oceania", "region": "Australia and New Zealand", "country": "Australia", "admin1": "Australian Capital Territory", "admin2": "Gungahlin", "city": "Gungahlin", "suburb": "Gungahlin", "latitude": -35.1832, "longitude": 149.1366, "postcode": "2912"}, {"id": "28fc4018-030e-4807-a683-2185efef3667", "continent": "Oceania", "region": "Australia and New Zealand", "country": "Australia", "admin1": "Australian Capital Territory", "admin2": "Majura", "city": "Majura", "suburb": "Majura", "latitude": -35.2766, "longitude": 149.203, "postcode": "2609"}, {"id": "ae2c293d-e1a1-4058-9963-759dcf4e9ff2", "continent": "Oceania", "region": "Australia and New Zealand", "country": "Australia", "admin1": "Australian Capital Territory", "admin2": "Majura", "city": "Pialligo", "suburb": "Pialligo", "latitude": -35.301, "longitude": 149.193, "postcode": "2609"}, {"id": "6c2f6b00-c26d-4a1f-b676-2950fc2812f0", "continent": "Oceania", "region": "Australia and New Zealand", "country": "Australia", "admin1": "Australian Capital Territory", "admin2": "Majura", "city": "Symonston", "suburb": "Symonston", "latitude": -35.3367, "longitude": 149.1543, "postcode": "2609"}, {"id": "00d4e045-2c4e-4bfb-8b95-8c6a1724d02b", "continent": "Oceania", "region": "Australia and New Zealand", "country": "Australia", "admin1": "Australian Capital Territory", "admin2": "Molonglo Valley", "city": "Coombs", "suburb": "Coombs", "latitude": -35.3208, "longitude": 149.0308, "postcode": "2611"}, {"id": "7004a4e2-9b64-4a36-8ef4-ccc981a64b4f", "continent": "Oceania", "region": "Australia and New Zealand", "country": "Australia", "admin1": "Australian Capital Territory", "admin2": "Molonglo Valley", "city": "Denman Prospect", "suburb": "Denman Prospect", "latitude": -35.3172, "longitude": 149.0064, "postcode": "2611"}, {"id": "719296f3-4615-4bff-b75b-ea8f98e4b013", "continent": "Oceania", "region": "Australia and New Zealand", "country": "Australia", "admin1": "Australian Capital Territory", "admin2": "Molonglo Valley", "city": "Wright", "suburb": "Wright", "latitude": -35.3194, "longitude": 149.0211, "postcode": "2611"}, {"id": "22ada821-c776-462f-81ee-3d11770bceaa", "continent": "Oceania", "region": "Australia and New Zealand", "country": "Australia", "admin1": "Australian Capital Territory", "admin2": "Tuggeranong", "city": "Calwell", "suburb": "Calwell", "latitude": -35.4396, "longitude": 149.0989, "postcode": "2905"}, {"id": "5c81fd88-14d7-4e8e-bb0f-bf67727d3c28", "continent": "Oceania", "region": "Australia and New Zealand", "country": "Australia", "admin1": "Australian Capital Territory", "admin2": "Tuggeranong", "city": "Greenway", "suburb": "Greenway", "latitude": -35.4183, "longitude": 149.0641, "postcode": "2900"}, {"id": "94c9cac0-525b-48f7-88a3-542e18464bd5", "continent": "Oceania", "region": "Australia and New Zealand", "country": "Australia", "admin1": "Australian Capital Territory", "admin2": "Tuggeranong", "city": "Kambah", "suburb": "Kambah", "latitude": -35.3915, "longitude": 149.0439, "postcode": "2902"}, {"id": "71d0e01c-6bac-45eb-b725-65c28b9308db", "continent": "Oceania", "region": "Australia and New Zealand", "country": "Australia", "admin1": "Australian Capital Territory", "admin2": "Tuggeranong", "city": "Tuggeranong", "suburb": "Tuggeranong", "latitude": -35.4167, "longitude": 149.0833, "postcode": "2900"}, {"id": "6b1b8c12-493d-4f82-b3fc-fc46c0e19729", "continent": "Oceania", "region": "Australia and New Zealand", "country": "Australia", "admin1": "Australian Capital Territory", "admin2": "Weston Creek", "city": "Duffy", "suburb": "Duffy", "latitude": -35.3333, "longitude": 149.0167, "postcode": "2611"}, {"id": "8329ba3f-2557-4f52-b002-d42b1c8175f2", "continent": "Oceania", "region": "Australia and New Zealand", "country": "Australia", "admin1": "Australian Capital Territory", "admin2": "Weston Creek", "city": "Rivett", "suburb": "Rivett", "latitude": -35.3506, "longitude": 149.0161, "postcode": "2611"}, {"id": "a75fd401-e174-4e1c-afb3-9b410c4fa07a", "continent": "Oceania", "region": "Australia and New Zealand", "country": "Australia", "admin1": "Australian Capital Territory", "admin2": "Weston Creek", "city": "Weston", "suburb": "Weston", "latitude": -35.3401, "longitude": 149.0302, "postcode": "2611"}, {"id": "ae5aa827-083c-4c37-bdb9-ba6a84ccde79", "continent": "Oceania", "region": "Australia and New Zealand", "country": "Australia", "admin1": "Australian Capital Territory", "admin2": "Woden Valley", "city": "Curtin", "suburb": "Curtin", "latitude": -35.3255, "longitude": 149.0812, "postcode": "2605"}, {"id": "38e7eb69-15af-43d5-a358-6f81ddd88d50", "continent": "Oceania", "region": "Australia and New Zealand", "country": "Australia", "admin1": "Australian Capital Territory", "admin2": "Woden Valley", "city": "Mawson", "suburb": "Mawson", "latitude": -35.3672, "longitude": 149.0933, "postcode": "2607"}, {"id": "ed796fdd-d4ff-4477-ac3f-1afa79eab96b", "continent": "Oceania", "region": "Australia and New Zealand", "country": "Australia", "admin1": "Australian Capital Territory", "admin2": "Woden Valley", "city": "Phillip", "suburb": "Phillip", "latitude": -35.345, "longitude": 149.0841, "postcode": "2606"}, {"id": "5ab4939a-645d-4d5b-a8fb-9fd3b06fd551", "continent": "Oceania", "region": "Australia and New Zealand", "country": "Australia", "admin1": "Australian Capital Territory", "admin2": "Woden Valley", "city": "Woden", "suburb": "Woden", "latitude": -35.3333, "longitude": 149.0833, "postcode": "2606"}, {"id": "e26ac080-48de-45ed-9ac7-a5256a39d011", "continent": "Oceania", "region": "Australia and New Zealand", "country": "Australia", "admin1": "New South Wales", "admin2": "Blue Mountains", "city": "Blackheath", "suburb": "Blackheath", "latitude": -33.63, "longitude": 150.2833, "postcode": "2785"}, {"id": "909d3274-a2b3-4dc1-95a7-0ca3ed4f4429", "continent": "Oceania", "region": "Australia and New Zealand", "country": "Australia", "admin1": "New South Wales", "admin2": "Blue Mountains", "city": "Katoomba", "suburb": "Katoomba", "latitude": -33.7139, "longitude": 150.3092, "postcode": "2780"}, {"id": "0bc87723-d23d-4228-b9a1-579f26e1e776", "continent": "Oceania", "region": "Australia and New Zealand", "country": "Australia", "admin1": "New South Wales", "admin2": "Blue Mountains", "city": "Leura", "suburb": "Leura", "latitude": -33.725, "longitude": 150.3156, "postcode": "2780"}, {"id": "00071931-b619-45a2-b6e0-efc3b1d777a8", "continent": "Oceania", "region": "Australia and New Zealand", "country": "Australia", "admin1": "New South Wales", "admin2": "Central Coast", "city": "Gosford", "suburb": "Gosford", "latitude": -33.421, "longitude": 151.3393, "postcode": "2250"}, {"id": "fc1dfe88-325b-4b30-98d7-6229bb5ae22a", "continent": "Oceania", "region": "Australia and New Zealand", "country": "Australia", "admin1": "New South Wales", "admin2": "Central Coast", "city": "Woy Woy", "suburb": "Woy Woy", "latitude": -33.5184, "longitude": 151.3117, "postcode": "2256"}, {"id": "2b09a8d8-dd7f-41b0-9619-478362662a49", "continent": "Oceania", "region": "Australia and New Zealand", "country": "Australia", "admin1": "New South Wales", "admin2": "Central Coast", "city": "Wyong", "suburb": "Wyong", "latitude": -33.2926, "longitude": 151.3731, "postcode": "2259"}, {"id": "956ad381-1273-410c-8ed2-24af11a1d07e", "continent": "Oceania", "region": "Australia and New Zealand", "country": "Australia", "admin1": "New South Wales", "admin2": "Central Tablelands", "city": "Bathurst", "suburb": "Bathurst", "latitude": -33.4185, "longitude": 149.5783, "postcode": "2795"}, {"id": "82444444-982a-4b76-b1fc-be17bac4abf6", "continent": "Oceania", "region": "Australia and New Zealand", "country": "Australia", "admin1": "New South Wales", "admin2": "Central Tablelands", "city": "Mudgee", "suburb": "Mudgee", "latitude": -32.6019, "longitude": 149.5894, "postcode": "2850"}, {"id": "43bc4950-6eaf-42ba-a5a8-ed4f66f93f6f", "continent": "Oceania", "region": "Australia and New Zealand", "country": "Australia", "admin1": "New South Wales", "admin2": "Central Tablelands", "city": "Orange", "suburb": "Orange", "latitude": -33.2833, "longitude": 149.1, "postcode": "2800"}, {"id": "65271790-0e10-4408-ba1a-5f00d2827b85", "continent": "Oceania", "region": "Australia and New Zealand", "country": "Australia", "admin1": "New South Wales", "admin2": "Far North Coast", "city": "Kingscliff", "suburb": "Kingscliff", "latitude": -28.3167, "longitude": 153.5667, "postcode": "2487"}, {"id": "adaf761b-f6a7-42e4-82a8-db8c23057b8d", "continent": "Oceania", "region": "Australia and New Zealand", "country": "Australia", "admin1": "New South Wales", "admin2": "Far North Coast", "city": "Murwillumbah", "suburb": "Murwillumbah", "latitude": -28.345, "longitude": 153.3986, "postcode": "2484"}], "next_page": "https://location-db.pages.dev/data2.json", "records": 100, "total": 439, "page": 1, "total_pages": 5}