{"data": [{"id": "5b300b9a-8ad5-4b32-8bf1-60922a39617a", "continent": "Oceania", "region": "Australia and New Zealand", "country": "Australia", "admin1": "Queensland", "admin2": "South East Queensland", "city": "Caloundra", "suburb": "Caloundra", "latitude": -26.8, "longitude": 153.1333, "postcode": "4551"}, {"id": "69ecc86a-2f76-4a24-b739-ccf2c276f183", "continent": "Oceania", "region": "Australia and New Zealand", "country": "Australia", "admin1": "Queensland", "admin2": "South East Queensland", "city": "Gold Coast", "suburb": "Gold Coast", "latitude": -28.0167, "longitude": 153.4, "postcode": "4217"}, {"id": "88976db9-3b61-42b0-90cd-4709e62adcea", "continent": "Oceania", "region": "Australia and New Zealand", "country": "Australia", "admin1": "Queensland", "admin2": "South East Queensland", "city": "Ipswich", "suburb": "Ipswich", "latitude": -27.6167, "longitude": 152.7667, "postcode": "4305"}, {"id": "b85e8521-f613-48ee-ab2d-560be3671f8f", "continent": "Oceania", "region": "Australia and New Zealand", "country": "Australia", "admin1": "Queensland", "admin2": "South East Queensland", "city": "Nambour", "suburb": "Nambour", "latitude": -26.6333, "longitude": 152.95, "postcode": "4560"}, {"id": "54a01295-3a2e-4572-97e9-a33fdb1cedd0", "continent": "Oceania", "region": "Australia and New Zealand", "country": "Australia", "admin1": "Queensland", "admin2": "South East Queensland", "city": "Nerang", "suburb": "Nerang", "latitude": -27.9833, "longitude": 153.3333, "postcode": "4211"}, {"id": "cad6f655-03b7-49ee-b663-cabd777434f7", "continent": "Oceania", "region": "Australia and New Zealand", "country": "Australia", "admin1": "Queensland", "admin2": "South East Queensland", "city": "Redcliffe", "suburb": "Redcliffe", "latitude": -27.2333, "longitude": 153.1, "postcode": "4020"}, {"id": "00a2cc2b-a16b-4ba4-bb74-b84b204b6017", "continent": "Oceania", "region": "Australia and New Zealand", "country": "Australia", "admin1": "Queensland", "admin2": "South East Queensland", "city": "Southport", "suburb": "Southport", "latitude": -27.9667, "longitude": 153.4, "postcode": "4215"}, {"id": "22ff1470-de7d-4340-b269-e4c93d3a0585", "continent": "Oceania", "region": "Australia and New Zealand", "country": "Australia", "admin1": "Queensland", "admin2": "South East Queensland", "city": "Springwood", "suburb": "Springwood", "latitude": -27.6333, "longitude": 153.1167, "postcode": "4127"}, {"id": "ece7e2b7-ec17-408e-84af-05f8caa89cc2", "continent": "Oceania", "region": "Australia and New Zealand", "country": "Australia", "admin1": "Queensland", "admin2": "South East Queensland", "city": "Surfers Paradise", "suburb": "Surfers Paradise", "latitude": -28.0, "longitude": 153.4333, "postcode": "4217"}, {"id": "68fcc180-848b-42fa-a856-ca2c5d9080b5", "continent": "Oceania", "region": "Australia and New Zealand", "country": "Australia", "admin1": "Queensland", "admin2": "Wide Bay\u2013Burnett", "city": "Bundaberg", "suburb": "Bundaberg", "latitude": -24.8667, "longitude": 152.35, "postcode": "4670"}, {"id": "4beca83d-2fb9-4cba-95be-916a85dd6717", "continent": "Oceania", "region": "Australia and New Zealand", "country": "Australia", "admin1": "Queensland", "admin2": "Wide Bay\u2013Burnett", "city": "Gympie", "suburb": "Gympie", "latitude": -26.1898, "longitude": 152.665, "postcode": "4570"}, {"id": "220e74ba-5fc8-4c10-82f0-6543fd35c641", "continent": "Oceania", "region": "Australia and New Zealand", "country": "Australia", "admin1": "Queensland", "admin2": "Wide Bay\u2013Burnett", "city": "Hervey Bay", "suburb": "Hervey Bay", "latitude": -25.2854, "longitude": 152.8721, "postcode": "4655"}, {"id": "d76278b2-6ba8-4ae0-8639-ac9d299bf7f7", "continent": "Oceania", "region": "Australia and New Zealand", "country": "Australia", "admin1": "Queensland", "admin2": "Wide Bay\u2013Burnett", "city": "Maryborough", "suburb": "Maryborough", "latitude": -25.5333, "longitude": 152.7, "postcode": "4650"}, {"id": "e2d596df-cb36-43ab-b1d3-635099329dda", "continent": "Oceania", "region": "Australia and New Zealand", "country": "Australia", "admin1": "South Australia", "admin2": "Adelaide Metropolitan", "city": "Adelaide", "suburb": "Adelaide", "latitude": -34.9285, "longitude": 138.6007, "postcode": "5000"}, {"id": "37d64c04-3311-428b-b166-0a7771699add", "continent": "Oceania", "region": "Australia and New Zealand", "country": "Australia", "admin1": "South Australia", "admin2": "Adelaide Metropolitan", "city": "Elizabeth", "suburb": "Elizabeth", "latitude": -34.7167, "longitude": 138.6833, "postcode": "5112"}, {"id": "a9a9289e-bbf6-49ef-9d44-97fa70cc6b32", "continent": "Oceania", "region": "Australia and New Zealand", "country": "Australia", "admin1": "South Australia", "admin2": "Adelaide Metropolitan", "city": "Gawler", "suburb": "Gawler", "latitude": -34.6, "longitude": 138.7167, "postcode": "5118"}, {"id": "27e089e7-3cc1-49fa-ace7-cc59a20af2f4", "continent": "Oceania", "region": "Australia and New Zealand", "country": "Australia", "admin1": "South Australia", "admin2": "Adelaide Metropolitan", "city": "Glenelg", "suburb": "Glenelg", "latitude": -34.9797, "longitude": 138.5166, "postcode": "5045"}, {"id": "bd932bd1-c31c-43e4-bee4-baa4173a65df", "continent": "Oceania", "region": "Australia and New Zealand", "country": "Australia", "admin1": "South Australia", "admin2": "Adelaide Metropolitan", "city": "Norwood", "suburb": "Norwood", "latitude": -34.9167, "longitude": 138.6333, "postcode": "5067"}, {"id": "601613da-2b4b-4f71-afdc-b9014301be8c", "continent": "Oceania", "region": "Australia and New Zealand", "country": "Australia", "admin1": "South Australia", "admin2": "Adelaide Metropolitan", "city": "Port Adelaide", "suburb": "Port Adelaide", "latitude": -34.85, "longitude": 138.5, "postcode": "5015"}, {"id": "29fc30ad-bdee-4427-9e1c-129bb6e5677e", "continent": "Oceania", "region": "Australia and New Zealand", "country": "Australia", "admin1": "South Australia", "admin2": "Adelaide Metropolitan", "city": "Salisbury", "suburb": "Salisbury", "latitude": -34.7635, "longitude": 138.6391, "postcode": "5108"}, {"id": "1edaa2bb-8049-459e-b8e5-a61b20dd5b4e", "continent": "Oceania", "region": "Australia and New Zealand", "country": "Australia", "admin1": "South Australia", "admin2": "Barossa", "city": "Angaston", "suburb": "Angaston", "latitude": -34.5, "longitude": 139.05, "postcode": "5235"}, {"id": "241e401d-0282-4033-b155-c5cc2cee8872", "continent": "Oceania", "region": "Australia and New Zealand", "country": "Australia", "admin1": "South Australia", "admin2": "Barossa", "city": "Nuriootpa", "suburb": "Nuriootpa", "latitude": -34.4817, "longitude": 138.9962, "postcode": "5355"}, {"id": "39f01418-76e1-44e1-9760-c0905846ff29", "continent": "Oceania", "region": "Australia and New Zealand", "country": "Australia", "admin1": "South Australia", "admin2": "Barossa", "city": "Tanunda", "suburb": "Tanunda", "latitude": -34.5275, "longitude": 138.9587, "postcode": "5352"}, {"id": "54758316-52d2-4816-b24e-ede5ff5d0ba9", "continent": "Oceania", "region": "Australia and New Zealand", "country": "Australia", "admin1": "South Australia", "admin2": "Eyre Peninsula", "city": "Ceduna", "suburb": "Ceduna", "latitude": -32.126, "longitude": 133.707, "postcode": "5690"}, {"id": "57bb5653-ad29-41a6-b8e6-da79fc79d713", "continent": "Oceania", "region": "Australia and New Zealand", "country": "Australia", "admin1": "South Australia", "admin2": "Eyre Peninsula", "city": "Port Lincoln", "suburb": "Port Lincoln", "latitude": -34.72, "longitude": 135.8589, "postcode": "5606"}, {"id": "7a745028-c4ce-4eb0-821f-8c97638fbc90", "continent": "Oceania", "region": "Australia and New Zealand", "country": "Australia", "admin1": "South Australia", "admin2": "Eyre Peninsula", "city": "Whyalla", "suburb": "Whyalla", "latitude": -33.035, "longitude": 137.585, "postcode": "5600"}, {"id": "6c36cf23-4407-405f-bf0b-7ed616e505e7", "continent": "Oceania", "region": "Australia and New Zealand", "country": "Australia", "admin1": "South Australia", "admin2": "Far North", "city": "Coober Pedy", "suburb": "Coober Pedy", "latitude": -29.0132, "longitude": 134.7549, "postcode": "5723"}, {"id": "ec42e571-4daa-4372-bd0b-2d94241feaf2", "continent": "Oceania", "region": "Australia and New Zealand", "country": "Australia", "admin1": "South Australia", "admin2": "Far North", "city": "Oodnadatta", "suburb": "Oodnadatta", "latitude": -27.5489, "longitude": 135.4465, "postcode": "5723"}, {"id": "48b7d5ab-6901-44d2-bc80-252323f3b22b", "continent": "Oceania", "region": "Australia and New Zealand", "country": "Australia", "admin1": "South Australia", "admin2": "Far North", "city": "Roxby Downs", "suburb": "Roxby Downs", "latitude": -30.56, "longitude": 136.895, "postcode": "5725"}, {"id": "c40a71db-cb7e-4bc0-b0d8-dfb2d05162cf", "continent": "Oceania", "region": "Australia and New Zealand", "country": "Australia", "admin1": "South Australia", "admin2": "Fleurieu Peninsula", "city": "Goolwa", "suburb": "Goolwa", "latitude": -35.501, "longitude": 138.781, "postcode": "5214"}, {"id": "9280b211-ffc3-4920-a9a0-137de9b67bf1", "continent": "Oceania", "region": "Australia and New Zealand", "country": "Australia", "admin1": "South Australia", "admin2": "Fleurieu Peninsula", "city": "Victor Harbor", "suburb": "Victor Harbor", "latitude": -35.556, "longitude": 138.622, "postcode": "5211"}, {"id": "c9cfd7eb-2ada-42af-bfa5-933f62b57f17", "continent": "Oceania", "region": "Australia and New Zealand", "country": "Australia", "admin1": "South Australia", "admin2": "Fleurieu Peninsula", "city": "Yankalilla", "suburb": "Yankalilla", "latitude": -35.45, "longitude": 138.3333, "postcode": "5203"}, {"id": "e7413892-7cd1-4632-9182-e5142a7c6275", "continent": "Oceania", "region": "Australia and New Zealand", "country": "Australia", "admin1": "South Australia", "admin2": "Limestone Coast", "city": "Millicent", "suburb": "Millicent", "latitude": -37.6, "longitude": 140.3, "postcode": "5280"}, {"id": "7c521810-188d-4750-b569-cef8cad4b761", "continent": "Oceania", "region": "Australia and New Zealand", "country": "Australia", "admin1": "South Australia", "admin2": "Limestone Coast", "city": "Mount Gambier", "suburb": "Mount Gambier", "latitude": -37.8303, "longitude": 140.7792, "postcode": "5290"}, {"id": "2e1a50ef-5ec5-4b5c-a918-891770043e2a", "continent": "Oceania", "region": "Australia and New Zealand", "country": "Australia", "admin1": "South Australia", "admin2": "Limestone Coast", "city": "Naracoorte", "suburb": "Naracoorte", "latitude": -36.9566, "longitude": 140.7434, "postcode": "5271"}, {"id": "ac9a6b94-d37e-4d21-a42c-82b2331377c2", "continent": "Oceania", "region": "Australia and New Zealand", "country": "Australia", "admin1": "South Australia", "admin2": "Mid North", "city": "Burra", "suburb": "Burra", "latitude": -33.6725, "longitude": 138.9389, "postcode": "5417"}, {"id": "f2d84dfa-2e75-40b4-a040-ed2265d2e4bf", "continent": "Oceania", "region": "Australia and New Zealand", "country": "Australia", "admin1": "South Australia", "admin2": "Mid North", "city": "Clare", "suburb": "Clare", "latitude": -33.8333, "longitude": 138.6, "postcode": "5453"}, {"id": "08708f18-bb2a-4491-9b89-04fa8e785ae5", "continent": "Oceania", "region": "Australia and New Zealand", "country": "Australia", "admin1": "South Australia", "admin2": "Mid North", "city": "Jamestown", "suburb": "Jamestown", "latitude": -33.2, "longitude": 138.6, "postcode": "5491"}, {"id": "6e151d47-349b-4325-8a75-75ae43eee9b4", "continent": "Oceania", "region": "Australia and New Zealand", "country": "Australia", "admin1": "South Australia", "admin2": "Murraylands", "city": "Mannum", "suburb": "Mannum", "latitude": -34.9172, "longitude": 139.3099, "postcode": "5238"}, {"id": "43ca6e33-a057-4fa3-913b-b20571ace43f", "continent": "Oceania", "region": "Australia and New Zealand", "country": "Australia", "admin1": "South Australia", "admin2": "Murraylands", "city": "Murray Bridge", "suburb": "Murray Bridge", "latitude": -35.1199, "longitude": 139.273, "postcode": "5253"}, {"id": "833f8a2e-e804-4303-9eee-1722a44c339b", "continent": "Oceania", "region": "Australia and New Zealand", "country": "Australia", "admin1": "South Australia", "admin2": "Murraylands", "city": "Tailem Bend", "suburb": "Tailem Bend", "latitude": -35.2582, "longitude": 139.4525, "postcode": "5260"}, {"id": "9d1bbe07-6e28-4bdb-93cd-554c306fa0f8", "continent": "Oceania", "region": "Australia and New Zealand", "country": "Australia", "admin1": "South Australia", "admin2": "Riverland", "city": "Berri", "suburb": "Berri", "latitude": -34.2833, "longitude": 140.6, "postcode": "5343"}, {"id": "24e56111-132c-4d95-98f5-62491ef0a78c", "continent": "Oceania", "region": "Australia and New Zealand", "country": "Australia", "admin1": "South Australia", "admin2": "Riverland", "city": "Loxton", "suburb": "Loxton", "latitude": -34.451, "longitude": 140.57, "postcode": "5333"}, {"id": "63af4e7f-cec7-440d-9d22-165f80a4ed6e", "continent": "Oceania", "region": "Australia and New Zealand", "country": "Australia", "admin1": "South Australia", "admin2": "Riverland", "city": "Renmark", "suburb": "Renmark", "latitude": -34.177, "longitude": 140.7465, "postcode": "5341"}, {"id": "4482356f-0848-44c9-b6de-57090b124eda", "continent": "Oceania", "region": "Australia and New Zealand", "country": "Australia", "admin1": "South Australia", "admin2": "Yorke Peninsula", "city": "Ardrossan", "suburb": "Ardrossan", "latitude": -34.4252, "longitude": 137.9196, "postcode": "5571"}, {"id": "6e51836a-811d-4e92-8591-e844ac7ea5d5", "continent": "Oceania", "region": "Australia and New Zealand", "country": "Australia", "admin1": "South Australia", "admin2": "Yorke Peninsula", "city": "Kadina", "suburb": "Kadina", "latitude": -33.9632, "longitude": 137.7165, "postcode": "5554"}, {"id": "072d63a7-c31a-444c-a9dd-3496eb7e347c", "continent": "Oceania", "region": "Australia and New Zealand", "country": "Australia", "admin1": "South Australia", "admin2": "Yorke Peninsula", "city": "Moonta", "suburb": "Moonta", "latitude": -33.667, "longitude": 137.6, "postcode": "5558"}, {"id": "4677807d-fd84-4799-8200-cbce19678710", "continent": "Oceania", "region": "Australia and New Zealand", "country": "Australia", "admin1": "Tasmania", "admin2": "Central Highlands", "city": "Bothwell", "suburb": "Bothwell", "latitude": -42.3853, "longitude": 146.7433, "postcode": "7030"}, {"id": "3e0d74fd-31ec-42c5-afaa-97c9b05671a7", "continent": "Oceania", "region": "Australia and New Zealand", "country": "Australia", "admin1": "Tasmania", "admin2": "Central Highlands", "city": "Hamilton", "suburb": "Hamilton", "latitude": -42.5125, "longitude": 146.689, "postcode": "7140"}, {"id": "1640cef9-9136-4849-a722-15d1963a4780", "continent": "Oceania", "region": "Australia and New Zealand", "country": "Australia", "admin1": "Tasmania", "admin2": "Central Highlands", "city": "Miena", "suburb": "Miena", "latitude": -42.0503, "longitude": 146.68, "postcode": "7030"}, {"id": "d43023a9-d276-4048-b0d1-254e5dbe0a4d", "continent": "Oceania", "region": "Australia and New Zealand", "country": "Australia", "admin1": "Tasmania", "admin2": "East Coast", "city": "Bicheno", "suburb": "Bicheno", "latitude": -41.8757, "longitude": 148.3034, "postcode": "7215"}, {"id": "0c1cb33d-f642-4b70-b331-7e84319ce699", "continent": "Oceania", "region": "Australia and New Zealand", "country": "Australia", "admin1": "Tasmania", "admin2": "East Coast", "city": "St Helens", "suburb": "St Helens", "latitude": -41.32, "longitude": 148.25, "postcode": "7216"}, {"id": "9ae50c74-e36e-4072-8e07-618d0a886f2d", "continent": "Oceania", "region": "Australia and New Zealand", "country": "Australia", "admin1": "Tasmania", "admin2": "East Coast", "city": "Swansea", "suburb": "Swansea", "latitude": -42.1203, "longitude": 148.0713, "postcode": "7190"}, {"id": "1aa45d0a-008a-43c6-aa85-46efd803a376", "continent": "Oceania", "region": "Australia and New Zealand", "country": "Australia", "admin1": "Tasmania", "admin2": "North", "city": "George Town", "suburb": "George Town", "latitude": -41.1002, "longitude": 146.8227, "postcode": "7253"}, {"id": "5c744b3c-159e-4155-904c-9c6683dd2e33", "continent": "Oceania", "region": "Australia and New Zealand", "country": "Australia", "admin1": "Tasmania", "admin2": "North", "city": "Launceston", "suburb": "Launceston", "latitude": -41.4545, "longitude": 147.1357, "postcode": "7250"}, {"id": "a84b810a-0c9b-43ae-b102-c371d8aabd99", "continent": "Oceania", "region": "Australia and New Zealand", "country": "Australia", "admin1": "Tasmania", "admin2": "North", "city": "Scottsdale", "suburb": "Scottsdale", "latitude": -41.1625, "longitude": 147.5186, "postcode": "7260"}, {"id": "681da308-f3bc-4050-b765-83a4af501863", "continent": "Oceania", "region": "Australia and New Zealand", "country": "Australia", "admin1": "Tasmania", "admin2": "North West & West", "city": "Burnie", "suburb": "Burnie", "latitude": -41.0523, "longitude": 145.9043, "postcode": "7320"}, {"id": "73c0bf73-9280-4cd5-b71f-677de4f37c70", "continent": "Oceania", "region": "Australia and New Zealand", "country": "Australia", "admin1": "Tasmania", "admin2": "North West & West", "city": "Devonport", "suburb": "Devonport", "latitude": -41.1767, "longitude": 146.3511, "postcode": "7310"}, {"id": "21e592e4-9be1-4996-a591-61497b03c621", "continent": "Oceania", "region": "Australia and New Zealand", "country": "Australia", "admin1": "Tasmania", "admin2": "North West & West", "city": "Smithton", "suburb": "Smithton", "latitude": -40.8445, "longitude": 145.1234, "postcode": "7330"}, {"id": "2af2f5fb-8f03-4aa3-a066-b17814296f68", "continent": "Oceania", "region": "Australia and New Zealand", "country": "Australia", "admin1": "Tasmania", "admin2": "South", "city": "Clarence", "suburb": "Clarence", "latitude": -42.8833, "longitude": 147.3667, "postcode": "7018"}, {"id": "dbe7e8fa-9ffa-4ae6-9023-0fa683d63aef", "continent": "Oceania", "region": "Australia and New Zealand", "country": "Australia", "admin1": "Tasmania", "admin2": "South", "city": "Glenorchy", "suburb": "Glenorchy", "latitude": -42.8333, "longitude": 147.2667, "postcode": "7010"}, {"id": "a73f39a8-df22-496d-84bf-f276bc775317", "continent": "Oceania", "region": "Australia and New Zealand", "country": "Australia", "admin1": "Tasmania", "admin2": "South", "city": "Hobart", "suburb": "Hobart", "latitude": -42.8821, "longitude": 147.3272, "postcode": "7000"}, {"id": "32b1554b-f58f-41b6-919a-0ba09e76dd51", "continent": "Oceania", "region": "Australia and New Zealand", "country": "Australia", "admin1": "Tasmania", "admin2": "South", "city": "Huonville", "suburb": "Huonville", "latitude": -43.0306, "longitude": 147.0475, "postcode": "7109"}, {"id": "9bf43879-f78f-4cf9-a2a1-c294de05bc46", "continent": "Oceania", "region": "Australia and New Zealand", "country": "Australia", "admin1": "Tasmania", "admin2": "South", "city": "Kingston", "suburb": "Kingston", "latitude": -43.0311, "longitude": 147.2614, "postcode": "7050"}, {"id": "e12de018-d6fa-4fe6-bc35-c3d807033753", "continent": "Oceania", "region": "Australia and New Zealand", "country": "Australia", "admin1": "Victoria", "admin2": "Barwon South West", "city": "Geelong", "suburb": "Geelong", "latitude": -38.1499, "longitude": 144.3617, "postcode": "3220"}, {"id": "4ce566c5-8e0c-492d-85ac-38521add0499", "continent": "Oceania", "region": "Australia and New Zealand", "country": "Australia", "admin1": "Victoria", "admin2": "Barwon South West", "city": "Portland", "suburb": "Portland", "latitude": -38.3447, "longitude": 141.6056, "postcode": "3305"}, {"id": "8f83cb27-cae1-41d2-a76f-b73addbd8278", "continent": "Oceania", "region": "Australia and New Zealand", "country": "Australia", "admin1": "Victoria", "admin2": "Barwon South West", "city": "Torquay", "suburb": "Torquay", "latitude": -38.3333, "longitude": 144.3167, "postcode": "3228"}, {"id": "1908f1d9-76b5-416b-814a-70979e489335", "continent": "Oceania", "region": "Australia and New Zealand", "country": "Australia", "admin1": "Victoria", "admin2": "Barwon South West", "city": "Warrnambool", "suburb": "Warrnambool", "latitude": -38.3818, "longitude": 142.4877, "postcode": "3280"}, {"id": "4a57f679-1d16-433d-af7a-62f6b8b667c5", "continent": "Oceania", "region": "Australia and New Zealand", "country": "Australia", "admin1": "Victoria", "admin2": "Gippsland", "city": "Bairnsdale", "suburb": "Bairnsdale", "latitude": -37.8303, "longitude": 147.6243, "postcode": "3875"}, {"id": "30cf2362-a9af-4ed1-9acd-6208c219966d", "continent": "Oceania", "region": "Australia and New Zealand", "country": "Australia", "admin1": "Victoria", "admin2": "Gippsland", "city": "Moe", "suburb": "Moe", "latitude": -38.1833, "longitude": 146.2667, "postcode": "3825"}, {"id": "e6a76942-2afd-4900-8cd8-ce8263200efd", "continent": "Oceania", "region": "Australia and New Zealand", "country": "Australia", "admin1": "Victoria", "admin2": "Gippsland", "city": "Morwell", "suburb": "Morwell", "latitude": -38.2347, "longitude": 146.3969, "postcode": "3840"}, {"id": "7c6a1125-0216-4dc3-8252-74b8575ab2be", "continent": "Oceania", "region": "Australia and New Zealand", "country": "Australia", "admin1": "Victoria", "admin2": "Gippsland", "city": "Sale", "suburb": "Sale", "latitude": -38.1033, "longitude": 147.0687, "postcode": "3850"}, {"id": "38bf9084-188d-4302-ba8e-20fe55d34686", "continent": "Oceania", "region": "Australia and New Zealand", "country": "Australia", "admin1": "Victoria", "admin2": "Gippsland", "city": "Traralgon", "suburb": "Traralgon", "latitude": -38.1954, "longitude": 146.54, "postcode": "3844"}, {"id": "a1d76337-99cd-4c63-9a0a-8b1d9ad6abe4", "continent": "Oceania", "region": "Australia and New Zealand", "country": "Australia", "admin1": "Victoria", "admin2": "Grampians", "city": "Ararat", "suburb": "Ararat", "latitude": -37.2866, "longitude": 142.9302, "postcode": "3377"}, {"id": "328c3b1f-7be9-4735-bf94-d3f3cf0560b5", "continent": "Oceania", "region": "Australia and New Zealand", "country": "Australia", "admin1": "Victoria", "admin2": "Grampians", "city": "Ballarat", "suburb": "Ballarat", "latitude": -37.5622, "longitude": 143.8503, "postcode": "3350"}, {"id": "c0272999-48f9-4500-aa23-ec71786b7ab3", "continent": "Oceania", "region": "Australia and New Zealand", "country": "Australia", "admin1": "Victoria", "admin2": "Grampians", "city": "Stawell", "suburb": "Stawell", "latitude": -37.0566, "longitude": 142.7781, "postcode": "3380"}, {"id": "e2ef456d-e964-4c62-a777-d3cba3e77e53", "continent": "Oceania", "region": "Australia and New Zealand", "country": "Australia", "admin1": "Victoria", "admin2": "Greater Melbourne", "city": "Berwick", "suburb": "Berwick", "latitude": -38.0347, "longitude": 145.3456, "postcode": "3806"}, {"id": "30889b33-aa1d-4d5b-aea2-0c29c44d3871", "continent": "Oceania", "region": "Australia and New Zealand", "country": "Australia", "admin1": "Victoria", "admin2": "Greater Melbourne", "city": "Box Hill", "suburb": "Box Hill", "latitude": -37.8189, "longitude": 145.1236, "postcode": "3128"}, {"id": "caab27f8-f4a8-455c-9828-c0963829b0df", "continent": "Oceania", "region": "Australia and New Zealand", "country": "Australia", "admin1": "Victoria", "admin2": "Greater Melbourne", "city": "Camberwell", "suburb": "Camberwell", "latitude": -37.8244, "longitude": 145.0581, "postcode": "3124"}, {"id": "1ef5eb4a-57f7-4325-a126-7583099d3406", "continent": "Oceania", "region": "Australia and New Zealand", "country": "Australia", "admin1": "Victoria", "admin2": "Greater Melbourne", "city": "Coburg", "suburb": "Coburg", "latitude": -37.7483, "longitude": 144.9622, "postcode": "3058"}, {"id": "7daac333-86d8-4362-a804-063604bdcaa0", "continent": "Oceania", "region": "Australia and New Zealand", "country": "Australia", "admin1": "Victoria", "admin2": "Greater Melbourne", "city": "Cranbourne", "suburb": "Cranbourne", "latitude": -38.0994, "longitude": 145.2828, "postcode": "3977"}, {"id": "fdb9d5c7-7052-4402-b348-ce868e210ae6", "continent": "Oceania", "region": "Australia and New Zealand", "country": "Australia", "admin1": "Victoria", "admin2": "Greater Melbourne", "city": "Croydon", "suburb": "Croydon", "latitude": -37.7933, "longitude": 145.2833, "postcode": "3136"}, {"id": "25168dd7-00aa-405b-9454-88acbd075c4e", "continent": "Oceania", "region": "Australia and New Zealand", "country": "Australia", "admin1": "Victoria", "admin2": "Greater Melbourne", "city": "Dandenong", "suburb": "Dandenong", "latitude": -37.9817, "longitude": 145.2154, "postcode": "3175"}, {"id": "1c965a3e-d082-4ae7-8258-4bf99f98acff", "continent": "Oceania", "region": "Australia and New Zealand", "country": "Australia", "admin1": "Victoria", "admin2": "Greater Melbourne", "city": "Epping", "suburb": "Epping", "latitude": -37.65, "longitude": 145.0167, "postcode": "3076"}, {"id": "d2892686-0f57-4481-b97a-5787d808eccd", "continent": "Oceania", "region": "Australia and New Zealand", "country": "Australia", "admin1": "Victoria", "admin2": "Greater Melbourne", "city": "Frankston", "suburb": "Frankston", "latitude": -38.1431, "longitude": 145.1186, "postcode": "3199"}, {"id": "605f37c1-808e-4cd4-84f7-ee232b5a85dc", "continent": "Oceania", "region": "Australia and New Zealand", "country": "Australia", "admin1": "Victoria", "admin2": "Greater Melbourne", "city": "Hoppers Crossing", "suburb": "Hoppers Crossing", "latitude": -37.8792, "longitude": 144.6992, "postcode": "3029"}, {"id": "9b4dd2c1-3df1-4b8c-bca1-b90b00448852", "continent": "Oceania", "region": "Australia and New Zealand", "country": "Australia", "admin1": "Victoria", "admin2": "Greater Melbourne", "city": "Lilydale", "suburb": "Lilydale", "latitude": -37.7578, "longitude": 145.3486, "postcode": "3140"}, {"id": "17bd4cb2-43ca-4364-9abe-c0798f3ae703", "continent": "Oceania", "region": "Australia and New Zealand", "country": "Australia", "admin1": "Victoria", "admin2": "Greater Melbourne", "city": "Melbourne", "suburb": "Melbourne", "latitude": -37.8136, "longitude": 144.9631, "postcode": "3000"}, {"id": "09bce0f1-b141-4555-88b7-3e071f67a667", "continent": "Oceania", "region": "Australia and New Zealand", "country": "Australia", "admin1": "Victoria", "admin2": "Greater Melbourne", "city": "Moonee Ponds", "suburb": "Moonee Ponds", "latitude": -37.7656, "longitude": 144.9233, "postcode": "3039"}, {"id": "aaa14ff6-88ef-402f-999f-c1406220cdee", "continent": "Oceania", "region": "Australia and New Zealand", "country": "Australia", "admin1": "Victoria", "admin2": "Greater Melbourne", "city": "Narre Warren", "suburb": "Narre Warren", "latitude": -38.0292, "longitude": 145.3028, "postcode": "3805"}, {"id": "5359e063-3f1e-45d8-bcdb-8e9256cb8e45", "continent": "Oceania", "region": "Australia and New Zealand", "country": "Australia", "admin1": "Victoria", "admin2": "Greater Melbourne", "city": "Pakenham", "suburb": "Pakenham", "latitude": -38.0706, "longitude": 145.4839, "postcode": "3810"}, {"id": "96f087b6-fd22-42c3-b210-ddc2bc27c3f5", "continent": "Oceania", "region": "Australia and New Zealand", "country": "Australia", "admin1": "Victoria", "admin2": "Greater Melbourne", "city": "Preston", "suburb": "Preston", "latitude": -37.7442, "longitude": 145.0031, "postcode": "3072"}, {"id": "9f269e11-d605-4ec6-813e-631a881310dd", "continent": "Oceania", "region": "Australia and New Zealand", "country": "Australia", "admin1": "Victoria", "admin2": "Greater Melbourne", "city": "Richmond", "suburb": "Richmond", "latitude": -37.8167, "longitude": 144.9833, "postcode": "3121"}, {"id": "b75a28b2-bbe3-4d5c-b013-31d5b97579b5", "continent": "Oceania", "region": "Australia and New Zealand", "country": "Australia", "admin1": "Victoria", "admin2": "Greater Melbourne", "city": "St Kilda", "suburb": "St Kilda", "latitude": -37.8678, "longitude": 144.9811, "postcode": "3182"}, {"id": "9cf8e30e-9ec6-4c72-8faa-3659b1fa33d2", "continent": "Oceania", "region": "Australia and New Zealand", "country": "Australia", "admin1": "Victoria", "admin2": "Greater Melbourne", "city": "Sunbury", "suburb": "Sunbury", "latitude": -37.5833, "longitude": 144.7167, "postcode": "3429"}, {"id": "f7f6c37e-9eff-49d2-bec6-0b886ef19a7d", "continent": "Oceania", "region": "Australia and New Zealand", "country": "Australia", "admin1": "Victoria", "admin2": "Greater Melbourne", "city": "Werribee", "suburb": "Werribee", "latitude": -37.8995, "longitude": 144.6605, "postcode": "3030"}, {"id": "00626124-6f3b-42a4-84cf-104ffe54d09b", "continent": "Oceania", "region": "Australia and New Zealand", "country": "Australia", "admin1": "Victoria", "admin2": "Hume", "city": "Shepparton", "suburb": "Shepparton", "latitude": -36.3805, "longitude": 145.3982, "postcode": "3630"}, {"id": "eb50b055-e921-4fc4-a983-7d5ed42d5796", "continent": "Oceania", "region": "Australia and New Zealand", "country": "Australia", "admin1": "Victoria", "admin2": "Hume", "city": "Wangaratta", "suburb": "Wangaratta", "latitude": -36.3566, "longitude": 146.3266, "postcode": "3677"}, {"id": "0fbef3b9-a6ef-40e9-9755-fe68a4abdff0", "continent": "Oceania", "region": "Australia and New Zealand", "country": "Australia", "admin1": "Victoria", "admin2": "Hume", "city": "Wodonga", "suburb": "Wodonga", "latitude": -36.1218, "longitude": 146.8881, "postcode": "3690"}, {"id": "f8454c44-e386-474d-bc14-227d250551a9", "continent": "Oceania", "region": "Australia and New Zealand", "country": "Australia", "admin1": "Victoria", "admin2": "Loddon Mallee", "city": "Bendigo", "suburb": "Bendigo", "latitude": -36.757, "longitude": 144.2794, "postcode": "3550"}], "next_page": "https://location-db.pages.dev/data4.json", "records": 100, "total": 439, "page": 3, "total_pages": 5}